<?xml version="1.0" encoding="UTF-8" standalone="no"?>
<!-- Created with Inkscape (http://www.inkscape.org/) -->

<svg
   xmlns:dc="http://purl.org/dc/elements/1.1/"
   xmlns:cc="http://creativecommons.org/ns#"
   xmlns:rdf="http://www.w3.org/1999/02/22-rdf-syntax-ns#"
   xmlns:svg="http://www.w3.org/2000/svg"
   xmlns="http://www.w3.org/2000/svg"
   xmlns:xlink="http://www.w3.org/1999/xlink"
   version="1.1"
   width="16"
   height="16"
   id="svg9023">
  <defs
     id="defs9025">
    <linearGradient
       x1="760"
       y1="795.86218"
       x2="766"
       y2="795.86218"
       id="linearGradient4339"
       xlink:href="#linearGradient4298"
       gradientUnits="userSpaceOnUse"
       gradientTransform="translate(332.46095,-765.13983)" />
    <linearGradient
       id="linearGradient4298">
      <stop
         id="stop4300"
         style="stop-color:#e5cb3b;stop-opacity:1"
         offset="0" />
      <stop
         id="stop4302"
         style="stop-color:#d77c2a;stop-opacity:1"
         offset="1" />
    </linearGradient>
    <linearGradient
       x1="765.27661"
       y1="789.09869"
       x2="761.034"
       y2="789.09869"
       id="linearGradient4341"
       xlink:href="#linearGradient4320"
       gradientUnits="userSpaceOnUse" />
    <linearGradient
       id="linearGradient4320">
      <stop
         id="stop4322"
         style="stop-color:#e8c4ad;stop-opacity:1"
         offset="0" />
      <stop
         id="stop4324"
         style="stop-color:#f6e8dc;stop-opacity:1"
         offset="1" />
    </linearGradient>
    <linearGradient
       x1="-390"
       y1="103.36218"
       x2="-379"
       y2="96.362183"
       id="linearGradient4372"
       xlink:href="#linearGradient4208"
       gradientUnits="userSpaceOnUse"
       gradientTransform="translate(672.57143,610.14285)" />
    <linearGradient
       id="linearGradient4208">
      <stop
         id="stop4210"
         style="stop-color:#e6e6e6;stop-opacity:1"
         offset="0" />
      <stop
         id="stop4212"
         style="stop-color:#fafafa;stop-opacity:1"
         offset="1" />
    </linearGradient>
    <linearGradient
       x1="-375"
       y1="-23.637817"
       x2="-362"
       y2="-14.637817"
       id="linearGradient4335"
       xlink:href="#linearGradient4026"
       gradientUnits="userSpaceOnUse"
       gradientTransform="translate(0,170)" />
    <linearGradient
       id="linearGradient4026">
      <stop
         id="stop4028"
         style="stop-color:#89a7d5;stop-opacity:1"
         offset="0" />
      <stop
         id="stop4030"
         style="stop-color:#5280c6;stop-opacity:1"
         offset="1" />
    </linearGradient>
    <linearGradient
       x1="-375"
       y1="-23.637817"
       x2="-362"
       y2="-14.637817"
       id="linearGradient9021"
       xlink:href="#linearGradient4026"
       gradientUnits="userSpaceOnUse"
       gradientTransform="translate(656.57143,729.14285)" />
  </defs>
  <metadata
     id="metadata9028">
    <rdf:RDF>
      <cc:Work
         rdf:about="">
        <dc:format>image/svg+xml</dc:format>
        <dc:type
           rdf:resource="http://purl.org/dc/dcmitype/StillImage" />
        <dc:title></dc:title>
      </cc:Work>
    </rdf:RDF>
  </metadata>
  <g
     transform="translate(-280.57144,-701.50507)"
     id="layer1">
    <rect
       width="15"
       height="13"
       rx="1.46875"
       ry="1.5"
       x="280.57144"
       y="702.50507"
       id="rect4307"
       style="fill:url(#linearGradient9021);fill-opacity:1;fill-rule:nonzero;stroke:none;display:inline" />
    <rect
       width="13"
       height="9"
       ry="0"
       x="281.57144"
       y="705.50507"
       id="rect4356"
       style="fill:url(#linearGradient4372);fill-opacity:1;fill-rule:nonzero;stroke:none;display:inline" />
    <rect
       width="3"
       height="1"
       x="282.57144"
       y="707.50507"
       id="rect4358"
       style="fill:#5383cc;fill-opacity:1;fill-rule:nonzero;stroke:none;display:inline" />
    <rect
       width="3"
       height="1"
       x="282.57144"
       y="711.50507"
       id="rect4360"
       style="fill:#5383cc;fill-opacity:1;fill-rule:nonzero;stroke:none;display:inline" />
    <rect
       width="7"
       height="3"
       x="286.57144"
       y="706.50507"
       id="rect4362"
       style="fill:#c8c8c8;fill-opacity:1;fill-rule:nonzero;stroke:none;display:inline" />
    <rect
       width="13"
       height="1"
       rx="0.5"
       ry="0.5"
       x="281.57144"
       y="703.50507"
       id="rect4333"
       style="fill:#bbd2f4;fill-opacity:0.5515464;fill-rule:nonzero;stroke:none;display:inline" />
    <rect
       width="6"
       height="2"
       x="287.57144"
       y="707.50507"
       id="rect4364"
       style="fill:#ffffff;fill-opacity:1;fill-rule:nonzero;stroke:none;display:inline" />
    <rect
       width="7"
       height="3"
       x="286.57144"
       y="710.50507"
       id="rect4366"
       style="fill:#c8c8c8;fill-opacity:1;fill-rule:nonzero;stroke:none;display:inline" />
    <rect
       width="6"
       height="2"
       x="287.57144"
       y="711.50507"
       id="rect4368"
       style="fill:#ffffff;fill-opacity:1;fill-rule:nonzero;stroke:none;display:inline" />
    <rect
       width="3"
       height="1"
       rx="0"
       ry="1"
       x="291.57144"
       y="713.50507"
       id="rect4370"
       style="fill:#ffffff;fill-opacity:1;fill-rule:nonzero;stroke:none;display:inline" />
    <g
       transform="matrix(0.71586158,0,0,0.71380936,-248.01094,143.68151)"
       id="g4313"
       style="display:inline">
      <rect
         width="6"
         height="15"
         x="1092.4609"
         y="23.222353"
         transform="matrix(0.70710678,0.70710678,-0.70710678,0.70710678,0,0)"
         id="rect4315"
         style="fill:url(#linearGradient4339);fill-opacity:1;fill-rule:nonzero;stroke:none" />
      <rect
         width="1"
         height="13"
         x="1093.4609"
         y="24.222353"
         transform="matrix(0.70710678,0.70710678,-0.70710678,0.70710678,0,0)"
         id="rect4317"
         style="fill:#f6e9b3;fill-opacity:1;fill-rule:nonzero;stroke:none" />
      <rect
         width="1"
         height="14"
         x="1094.4609"
         y="24.222353"
         transform="matrix(0.70710678,0.70710678,-0.70710678,0.70710678,0,0)"
         id="rect4319"
         style="fill:#f3d42b;fill-opacity:1;fill-rule:nonzero;stroke:none" />
      <rect
         width="1"
         height="14"
         x="1095.4609"
         y="24.222353"
         transform="matrix(0.70710678,0.70710678,-0.70710678,0.70710678,0,0)"
         id="rect4321"
         style="fill:#f7f795;fill-opacity:0.87628868;fill-rule:nonzero;stroke:none" />
      <rect
         width="1"
         height="13"
         x="1096.4609"
         y="24.222353"
         transform="matrix(0.70710678,0.70710678,-0.70710678,0.70710678,0,0)"
         id="rect4323"
         style="fill:#deac5b;fill-opacity:1;fill-rule:nonzero;stroke:none" />
      <path
         d="m 745.45927,799.51383 -0.0884,4.37523 4.33103,-0.13259 z"
         id="path4325"
         style="fill:#67432c;fill-opacity:1;stroke:none" />
      <path
         d="m 746.32262,800.37719 -0.0887,2.06114 0.54619,0.54901 2.08262,-0.0703 z"
         id="path4327"
         style="fill:#dca684;fill-opacity:1;stroke:none" />
      <path
         d="m 766,788.36218 a 3,2 0 1 1 -6,0 3,2 0 1 1 6,0 z"
         transform="matrix(0.70710678,0.70710678,-0.70710678,0.70710678,776.12096,-305.95016)"
         id="path4329"
         style="fill:#d8a674;fill-opacity:1;fill-rule:nonzero;stroke:none" />
      <path
         d="m 766,788.36218 a 3,2 0 1 1 -6,0 3,2 0 1 1 6,0 z"
         transform="matrix(0.47140462,0.47140462,-0.35355416,0.35355416,677.23419,152.61811)"
         id="path4331"
         style="fill:url(#linearGradient4341);fill-opacity:1;fill-rule:nonzero;stroke:none" />
    </g>
  </g>
</svg>
