<?xml version="1.0" encoding="UTF-8" standalone="no"?>
<!-- Created with Inkscape (http://www.inkscape.org/) -->

<svg
   xmlns:dc="http://purl.org/dc/elements/1.1/"
   xmlns:cc="http://creativecommons.org/ns#"
   xmlns:rdf="http://www.w3.org/1999/02/22-rdf-syntax-ns#"
   xmlns:svg="http://www.w3.org/2000/svg"
   xmlns="http://www.w3.org/2000/svg"
   xmlns:xlink="http://www.w3.org/1999/xlink"
   version="1.1"
   width="16.000008"
   height="16"
   id="svg5437">
  <defs
     id="defs5439">
    <linearGradient
       x1="-375"
       y1="-23.637817"
       x2="-362"
       y2="-14.637817"
       id="linearGradient4185"
       xlink:href="#linearGradient4026"
       gradientUnits="userSpaceOnUse"
       gradientTransform="matrix(0.86666667,0,0,0.84615385,-47.133333,66.901874)" />
    <linearGradient
       id="linearGradient4026">
      <stop
         id="stop4028"
         style="stop-color:#89a7d5;stop-opacity:1"
         offset="0" />
      <stop
         id="stop4030"
         style="stop-color:#5280c6;stop-opacity:1"
         offset="1" />
    </linearGradient>
    <linearGradient
       x1="-363"
       y1="-18.637817"
       x2="-372"
       y2="-18.637817"
       id="linearGradient4187"
       xlink:href="#linearGradient4016"
       gradientUnits="userSpaceOnUse"
       gradientTransform="matrix(0.81818182,0,0,0.71428571,-65,64.532052)" />
    <linearGradient
       id="linearGradient4016">
      <stop
         id="stop4018"
         style="stop-color:#e6eefa;stop-opacity:1"
         offset="0" />
      <stop
         id="stop4020"
         style="stop-color:#e6eefa;stop-opacity:0"
         offset="1" />
    </linearGradient>
    <linearGradient
       x1="-375"
       y1="-23.637817"
       x2="-362"
       y2="-14.637817"
       id="linearGradient4213"
       xlink:href="#linearGradient4026"
       gradientUnits="userSpaceOnUse"
       gradientTransform="matrix(0.86666667,0,0,0.84615385,-50.133333,62.901874)" />
    <linearGradient
       id="linearGradient5413">
      <stop
         id="stop5415"
         style="stop-color:#89a7d5;stop-opacity:1"
         offset="0" />
      <stop
         id="stop5417"
         style="stop-color:#5280c6;stop-opacity:1"
         offset="1" />
    </linearGradient>
    <linearGradient
       x1="-363"
       y1="-18.637817"
       x2="-372"
       y2="-18.637817"
       id="linearGradient4215"
       xlink:href="#linearGradient4016"
       gradientUnits="userSpaceOnUse"
       gradientTransform="matrix(0.81818182,0,0,0.71428571,-68,60.532052)" />
  </defs>
  <metadata
     id="metadata5442">
    <rdf:RDF>
      <cc:Work
         rdf:about="">
        <dc:format>image/svg+xml</dc:format>
        <dc:type
           rdf:resource="http://purl.org/dc/dcmitype/StillImage" />
        <dc:title></dc:title>
      </cc:Work>
    </rdf:RDF>
  </metadata>
  <g
     transform="translate(-249.14285,-712.93359)"
     id="layer1">
    <g
       transform="translate(625.14286,672.57143)"
       id="g4201"
       style="opacity:0.6;display:inline">
      <rect
         width="13"
         height="11"
         rx="1.46875"
         ry="1.5"
         x="-376"
         y="40.362183"
         id="rect4189"
         style="fill:url(#linearGradient4213);fill-opacity:1;fill-rule:nonzero;stroke:none" />
      <rect
         width="11"
         height="7"
         ry="0"
         x="-375"
         y="43.362183"
         id="rect4191"
         style="fill:#ffffff;fill-opacity:1;fill-rule:nonzero;stroke:none" />
      <rect
         width="9"
         height="5"
         ry="0"
         x="-374"
         y="44.362183"
         id="rect4193"
         style="fill:url(#linearGradient4215);fill-opacity:1;fill-rule:nonzero;stroke:none" />
      <rect
         width="11"
         height="1"
         rx="0.49999997"
         ry="0.5"
         x="-375"
         y="41.362183"
         id="rect4195"
         style="fill:#bbd2f4;fill-opacity:0.5515464;fill-rule:nonzero;stroke:none" />
    </g>
    <g
       transform="translate(625.14286,672.57143)"
       id="g4207"
       style="display:inline">
      <rect
         width="13"
         height="11"
         rx="1.46875"
         ry="1.5"
         x="-373"
         y="44.362183"
         id="rect4177"
         style="fill:url(#linearGradient4185);fill-opacity:1;fill-rule:nonzero;stroke:none" />
      <rect
         width="11"
         height="7"
         ry="0"
         x="-372"
         y="47.362183"
         id="rect4179"
         style="fill:#ffffff;fill-opacity:1;fill-rule:nonzero;stroke:none" />
      <rect
         width="9"
         height="5"
         ry="0"
         x="-371"
         y="48.362183"
         id="rect4181"
         style="fill:url(#linearGradient4187);fill-opacity:1;fill-rule:nonzero;stroke:none" />
      <rect
         width="11"
         height="1"
         rx="0.49999997"
         ry="0.5"
         x="-372"
         y="45.362183"
         id="rect4183"
         style="fill:#bbd2f4;fill-opacity:0.5515464;fill-rule:nonzero;stroke:none" />
    </g>
  </g>
</svg>
