<?xml version="1.0" encoding="UTF-8" standalone="no"?>
<!-- Created with Inkscape (http://www.inkscape.org/) -->

<svg
   xmlns:dc="http://purl.org/dc/elements/1.1/"
   xmlns:cc="http://creativecommons.org/ns#"
   xmlns:rdf="http://www.w3.org/1999/02/22-rdf-syntax-ns#"
   xmlns:svg="http://www.w3.org/2000/svg"
   xmlns="http://www.w3.org/2000/svg"
   xmlns:xlink="http://www.w3.org/1999/xlink"
   version="1.1"
   width="16"
   height="16"
   id="svg9775">
  <defs
     id="defs9777">
    <linearGradient
       x1="-378"
       y1="613.36224"
       x2="-380"
       y2="604.36224"
       id="linearGradient9752"
       xlink:href="#linearGradient11260"
       gradientUnits="userSpaceOnUse"
       gradientTransform="matrix(-1,0,0,-1,-44.714286,969.29583)" />
    <linearGradient
       id="linearGradient11260">
      <stop
         id="stop11262"
         style="stop-color:#badfb4;stop-opacity:1"
         offset="0" />
      <stop
         id="stop11264"
         style="stop-color:#6cbb62;stop-opacity:1"
         offset="1" />
    </linearGradient>
    <linearGradient
       x1="-378"
       y1="616.36224"
       x2="-381"
       y2="603.36224"
       id="linearGradient9750"
       xlink:href="#linearGradient3896-4-8"
       gradientUnits="userSpaceOnUse"
       gradientTransform="matrix(-1,0,0,-1,-44.714286,969.29583)" />
    <linearGradient
       id="linearGradient3896-4-8">
      <stop
         id="stop3898-5-5"
         style="stop-color:#7bc57b;stop-opacity:1"
         offset="0" />
      <stop
         id="stop3900-1-4"
         style="stop-color:#307030;stop-opacity:1"
         offset="1" />
    </linearGradient>
    <linearGradient
       x1="-380"
       y1="604.36218"
       x2="-378"
       y2="614.36218"
       id="linearGradient9663"
       xlink:href="#linearGradient11260-4"
       gradientUnits="userSpaceOnUse"
       gradientTransform="translate(739.92857,-225.32141)" />
    <linearGradient
       id="linearGradient11260-4">
      <stop
         id="stop11262-5"
         style="stop-color:#badfb4;stop-opacity:1"
         offset="0" />
      <stop
         id="stop11264-8"
         style="stop-color:#6cbb62;stop-opacity:1"
         offset="1" />
    </linearGradient>
    <linearGradient
       x1="-381"
       y1="603.36218"
       x2="-378"
       y2="614.36218"
       id="linearGradient9661"
       xlink:href="#linearGradient3896-4-8-1"
       gradientUnits="userSpaceOnUse"
       gradientTransform="translate(739.92857,-225.32141)" />
    <linearGradient
       id="linearGradient3896-4-8-1">
      <stop
         id="stop3898-5-5-0"
         style="stop-color:#7bc57b;stop-opacity:1"
         offset="0" />
      <stop
         id="stop3900-1-4-9"
         style="stop-color:#307030;stop-opacity:1"
         offset="1" />
    </linearGradient>
  </defs>
  <metadata
     id="metadata9780">
    <rdf:RDF>
      <cc:Work
         rdf:about="">
        <dc:format>image/svg+xml</dc:format>
        <dc:type
           rdf:resource="http://purl.org/dc/dcmitype/StillImage" />
        <dc:title></dc:title>
      </cc:Work>
    </rdf:RDF>
  </metadata>
  <g
     transform="translate(-352.92856,-375.04077)"
     id="layer1">
    <path
       d="m 356.92857,380.04076 4,-4 4,4 -2,0 0,10 -4,0 0,-10 z"
       id="path9653"
       style="fill:url(#linearGradient9661);fill-opacity:1;fill-rule:nonzero;stroke:none;display:inline" />
    <path
       d="m 359.42857,379.04076 1.5,-1.5 1.5,1.5 -0.5,0.5 0,9.5 -2,0 0,-9.5 z"
       id="path9655"
       style="fill:url(#linearGradient9663);fill-opacity:1;fill-rule:nonzero;stroke:none;display:inline" />
  </g>
</svg>
