<?xml version="1.0" encoding="UTF-8" standalone="no"?>
<!-- Created with Inkscape (http://www.inkscape.org/) -->

<svg
   xmlns:dc="http://purl.org/dc/elements/1.1/"
   xmlns:cc="http://creativecommons.org/ns#"
   xmlns:rdf="http://www.w3.org/1999/02/22-rdf-syntax-ns#"
   xmlns:svg="http://www.w3.org/2000/svg"
   xmlns="http://www.w3.org/2000/svg"
   xmlns:xlink="http://www.w3.org/1999/xlink"
   version="1.1"
   width="16"
   height="16"
   id="svg5630">
  <defs
     id="defs5632">
    <linearGradient
       x1="-380"
       y1="604.36218"
       x2="-378"
       y2="614.36212"
       id="linearGradient5614"
       xlink:href="#linearGradient11260"
       gradientUnits="userSpaceOnUse"
       gradientTransform="translate(764.71429,52.571461)" />
    <linearGradient
       id="linearGradient11260">
      <stop
         id="stop11262"
         style="stop-color:#badfb4;stop-opacity:1"
         offset="0" />
      <stop
         id="stop11264"
         style="stop-color:#6cbb62;stop-opacity:1"
         offset="1" />
    </linearGradient>
    <linearGradient
       x1="-381"
       y1="603.36218"
       x2="-378"
       y2="614.36218"
       id="linearGradient5609"
       xlink:href="#linearGradient3896-4-8"
       gradientUnits="userSpaceOnUse"
       gradientTransform="translate(764.71429,52.571461)" />
    <linearGradient
       id="linearGradient3896-4-8">
      <stop
         id="stop3898-5-5"
         style="stop-color:#7bc57b;stop-opacity:1"
         offset="0" />
      <stop
         id="stop3900-1-4"
         style="stop-color:#307030;stop-opacity:1"
         offset="1" />
    </linearGradient>
  </defs>
  <metadata
     id="metadata5635">
    <rdf:RDF>
      <cc:Work
         rdf:about="">
        <dc:format>image/svg+xml</dc:format>
        <dc:type
           rdf:resource="http://purl.org/dc/dcmitype/StillImage" />
        <dc:title></dc:title>
      </cc:Work>
    </rdf:RDF>
  </metadata>
  <g
     transform="translate(-377.71429,-652.93359)"
     id="layer1">
    <path
       d="m 381.71429,657.93361 4,-4 4,4 -2,0 0,2 c 0,3 4,2 4,5 l 0,3 -4,0 c 0,-2 0,-4 -2,-4 -2,0 -2,2 -2,4 l -4,0 0,-3 c 0,-3 4,-2 4,-5 l 0,-2 z"
       id="path5604"
       style="fill:url(#linearGradient5609);fill-opacity:1;fill-rule:nonzero;stroke:none;display:inline" />
    <path
       d="m 384.21429,656.93361 1.5,-1.5 1.5,1.5 -0.5,0.5 0,2.5 c 0,3 4,3 4,5 l 0,2 -2,0 0,-1 c 0,-1 -1,-3 -3,-3 -2,0 -3,2 -3,3 l 0,1 -2,0 0,-2 c 0,-2 4,-2 4,-5 l 0,-2.5 z"
       id="path5606"
       style="fill:url(#linearGradient5614);fill-opacity:1;fill-rule:nonzero;stroke:none;display:inline" />
  </g>
</svg>
