<?xml version="1.0" encoding="UTF-8" standalone="no"?>
<!-- Created with Inkscape (http://www.inkscape.org/) -->

<svg
   xmlns:dc="http://purl.org/dc/elements/1.1/"
   xmlns:cc="http://creativecommons.org/ns#"
   xmlns:rdf="http://www.w3.org/1999/02/22-rdf-syntax-ns#"
   xmlns:svg="http://www.w3.org/2000/svg"
   xmlns="http://www.w3.org/2000/svg"
   xmlns:xlink="http://www.w3.org/1999/xlink"
   version="1.1"
   width="16.000015"
   height="16"
   id="svg6300">
  <defs
     id="defs6302">
    <linearGradient
       x1="-111"
       y1="1010.3622"
       x2="-109"
       y2="1012.3622"
       id="linearGradient6172"
       xlink:href="#linearGradient4842"
       gradientUnits="userSpaceOnUse"
       gradientTransform="matrix(-1.000007,0,0,1.000007,369.28494,-559.29923)" />
    <linearGradient
       id="linearGradient4842">
      <stop
         id="stop4844"
         style="stop-color:#f4e66f;stop-opacity:1"
         offset="0" />
      <stop
         id="stop4846"
         style="stop-color:#e0a637;stop-opacity:1"
         offset="1" />
    </linearGradient>
    <linearGradient
       x1="-111"
       y1="1010.3622"
       x2="-109"
       y2="1012.3622"
       id="linearGradient6134"
       xlink:href="#linearGradient4842"
       gradientUnits="userSpaceOnUse"
       gradientTransform="translate(579.28571,-559.29213)" />
    <linearGradient
       id="linearGradient6262">
      <stop
         id="stop6264"
         style="stop-color:#f4e66f;stop-opacity:1"
         offset="0" />
      <stop
         id="stop6266"
         style="stop-color:#e0a637;stop-opacity:1"
         offset="1" />
    </linearGradient>
    <linearGradient
       x1="-81"
       y1="1022.6122"
       x2="-95"
       y2="1012.1122"
       id="linearGradient6113"
       xlink:href="#linearGradient4008"
       gradientUnits="userSpaceOnUse" />
    <linearGradient
       id="linearGradient4008">
      <stop
         id="stop4010"
         style="stop-color:#eaf0f0;stop-opacity:1"
         offset="0" />
      <stop
         id="stop4012"
         style="stop-color:#c1ffff;stop-opacity:0"
         offset="1" />
    </linearGradient>
    <linearGradient
       x1="-92.199997"
       y1="1013.1622"
       x2="-79.599998"
       y2="1025.7622"
       id="linearGradient6099"
       xlink:href="#linearGradient8448"
       gradientUnits="userSpaceOnUse" />
    <linearGradient
       id="linearGradient8448">
      <stop
         id="stop8450"
         style="stop-color:#a4bae3;stop-opacity:1"
         offset="0" />
      <stop
         id="stop8452"
         style="stop-color:#456eba;stop-opacity:1"
         offset="1" />
    </linearGradient>
    <linearGradient
       x1="-92.666664"
       y1="1012.6955"
       x2="-84.5"
       y2="1020.8622"
       id="linearGradient6094"
       xlink:href="#linearGradient7130"
       gradientUnits="userSpaceOnUse" />
    <linearGradient
       id="linearGradient7130">
      <stop
         id="stop7132"
         style="stop-color:#bbd8ee;stop-opacity:1"
         offset="0" />
      <stop
         id="stop7134"
         style="stop-color:#85b6dc;stop-opacity:1"
         offset="1" />
    </linearGradient>
    <linearGradient
       x1="-97"
       y1="1008.3622"
       x2="-83"
       y2="1022.3622"
       id="linearGradient6090"
       xlink:href="#linearGradient5010"
       gradientUnits="userSpaceOnUse" />
    <linearGradient
       id="linearGradient5010">
      <stop
         id="stop5012"
         style="stop-color:#c3eef8;stop-opacity:1"
         offset="0" />
      <stop
         id="stop5014"
         style="stop-color:#3985b6;stop-opacity:1"
         offset="1" />
    </linearGradient>
    <linearGradient
       x1="-99"
       y1="1026.3622"
       x2="-111"
       y2="1021.3622"
       id="linearGradient6188"
       xlink:href="#linearGradient10449"
       gradientUnits="userSpaceOnUse"
       gradientTransform="translate(579.28571,-559.29213)" />
    <linearGradient
       id="linearGradient10449">
      <stop
         id="stop10451"
         style="stop-color:#b0b0b0;stop-opacity:1"
         offset="0" />
      <stop
         id="stop10453"
         style="stop-color:#cecece;stop-opacity:1"
         offset="1" />
    </linearGradient>
  </defs>
  <metadata
     id="metadata6305">
    <rdf:RDF>
      <cc:Work
         rdf:about="">
        <dc:format>image/svg+xml</dc:format>
        <dc:type
           rdf:resource="http://purl.org/dc/dcmitype/StillImage" />
        <dc:title></dc:title>
      </cc:Work>
    </rdf:RDF>
  </metadata>
  <g
     transform="translate(-466.28571,-450.08287)"
     id="layer1">
    <path
       d="m 472.28571,463.07007 c -2,0 -4,1.3508 -4,3.0128 l 2.1875,0 c 0.40651,-0.587 1.49675,-1 2.8125,-1 l 2,0 c 1.31575,0 2.40599,0.413 2.8125,1 l 2.1875,0 c 0,-1.662 -2,-3.0128 -4,-3.0128 z"
       id="rect6174"
       style="fill:url(#linearGradient6188);fill-opacity:1;stroke:none;display:inline" />
    <path
       d="m -81,1017.3622 a 7,7 0 1 1 -14,0 7,7 0 1 1 14,0 z"
       transform="translate(562.28571,-559.29213)"
       id="path5314"
       style="fill:url(#linearGradient6090);fill-opacity:1;stroke:none;display:inline" />
    <path
       d="m -81,1017.3622 a 7,7 0 1 1 -14,0 7,7 0 1 1 14,0 z"
       transform="matrix(0.85714286,0,0,0.85714286,549.71428,-413.9547)"
       id="path6092"
       style="fill:url(#linearGradient6094);fill-opacity:1;stroke:none;display:inline" />
    <path
       d="m -81,1017.3622 a 7,7 0 1 1 -14,0 7,7 0 1 1 14,0 z"
       transform="matrix(0.71428581,0,0,0.71428581,537.14286,-268.61734)"
       id="path6097"
       style="fill:url(#linearGradient6099);fill-opacity:1;stroke:none;display:inline" />
    <path
       d="m -81,1017.3622 a 7,7 0 1 1 -14,0 7,7 0 1 1 14,0 z"
       transform="matrix(0.57142861,0,0,0.57142861,524.57143,-123.27983)"
       id="path6101"
       style="fill:#ffffff;fill-opacity:1;stroke:none;display:inline" />
    <path
       d="m -81,1017.3622 a 7,7 0 1 1 -14,0 7,7 0 1 1 14,0 z"
       transform="matrix(0.57142861,0,0,0.57142861,524.57143,-123.27983)"
       id="path6105"
       style="fill:url(#linearGradient6113);fill-opacity:1;stroke:none;display:inline" />
    <path
       d="m 474.28571,455.07007 0,3 3,-2"
       id="path6115"
       style="fill:none;stroke:#666666;stroke-width:1px;stroke-linecap:round;stroke-linejoin:round;stroke-opacity:1;display:inline" />
    <path
       d="m 469.28571,450.07007 c 1,0 3,0 3,1 0,1 -3,2 -4,4 -1,0 -2,0 -2,-1 0,-2 1,-4 3,-4 z"
       id="rect6117"
       style="fill:url(#linearGradient6134);fill-opacity:1;stroke:none;display:inline" />
    <path
       d="m 469.28571,451.07007 1.82323,0 c -0.27471,0.4215 -2.78993,1.9835 -3.19888,3 -0.17865,0.08 -0.40151,0.1471 -0.62435,0 0,-2 1,-3 2,-3 z"
       id="path6136"
       style="opacity:0.5;fill:#ffffff;fill-opacity:1;stroke:none;display:inline" />
    <path
       d="m 479.2857,450.07007 c -1.00001,0 -3.00002,0 -3.00002,1 0,1 3.00002,2 4.00003,4 1,0 2.00001,0 2.00001,-1 0,-2 -1.00001,-4 -3.00002,-4 z"
       id="path6168"
       style="fill:url(#linearGradient6172);fill-opacity:1;stroke:none;display:inline" />
    <path
       d="m 479.2857,451.07007 -1.82324,0 c 0.27471,0.4215 2.78995,1.9835 3.1989,3 0.17865,0.08 0.40151,0.1471 0.62435,0 0,-2 -1,-3 -2.00001,-3 z"
       id="path6170"
       style="opacity:0.5;fill:#ffffff;fill-opacity:1;stroke:none;display:inline" />
  </g>
</svg>
