<?xml version="1.0" encoding="UTF-8" standalone="no"?>
<!-- Created with Inkscape (http://www.inkscape.org/) -->

<svg
   xmlns:dc="http://purl.org/dc/elements/1.1/"
   xmlns:cc="http://creativecommons.org/ns#"
   xmlns:rdf="http://www.w3.org/1999/02/22-rdf-syntax-ns#"
   xmlns:svg="http://www.w3.org/2000/svg"
   xmlns="http://www.w3.org/2000/svg"
   xmlns:xlink="http://www.w3.org/1999/xlink"
   version="1.1"
   width="16.000019"
   height="16.000011"
   id="svg5659">
  <defs
     id="defs5661">
    <linearGradient
       x1="-81"
       y1="1211.3622"
       x2="-96"
       y2="1196.3622"
       id="linearGradient5585-3"
       xlink:href="#linearGradient5587-5"
       gradientUnits="userSpaceOnUse" />
    <linearGradient
       id="linearGradient5587-5">
      <stop
         id="stop5589-6"
         style="stop-color:#878787;stop-opacity:1"
         offset="0" />
      <stop
         id="stop5591-4"
         style="stop-color:#ebebeb;stop-opacity:1"
         offset="1" />
    </linearGradient>
    <linearGradient
       x1="-93"
       y1="1199.3622"
       x2="-83"
       y2="1209.3622"
       id="linearGradient5571-1"
       xlink:href="#linearGradient5573-3"
       gradientUnits="userSpaceOnUse" />
    <linearGradient
       id="linearGradient5573-3">
      <stop
         id="stop5575-8"
         style="stop-color:#ffffff;stop-opacity:1"
         offset="0" />
      <stop
         id="stop5577-2"
         style="stop-color:#bcbcbc;stop-opacity:1"
         offset="1" />
    </linearGradient>
  </defs>
  <metadata
     id="metadata5664">
    <rdf:RDF>
      <cc:Work
         rdf:about="">
        <dc:format>image/svg+xml</dc:format>
        <dc:type
           rdf:resource="http://purl.org/dc/dcmitype/StillImage" />
        <dc:title></dc:title>
      </cc:Work>
    </rdf:RDF>
  </metadata>
  <g
     transform="translate(-543.42857,-618.64789)"
     id="layer1">
    <g
       transform="translate(639.42857,-577.7271)"
       id="g5607"
       style="display:inline">
      <path
         d="m -89,1196.375 c -0.554,0 -1,0.446 -1,1 l 0,2.1562 -1.53125,-1.5312 c -0.391737,-0.3917 -1.014513,-0.3917 -1.40625,0 l -1.4375,1.4375 c -0.391737,0.3917 -0.391737,1.0145 0,1.4063 l 1.53125,1.5312 -2.15625,0 c -0.554,0 -1,0.446 -1,1 l 0,2 c 0,0.554 0.446,1 1,1 l 2.15625,0 -1.53125,1.5312 c -0.391737,0.3919 -0.391737,1.0146 0,1.4063 l 1.4375,1.4375 c 0.391737,0.3917 1.014513,0.3917 1.40625,0 l 1.53125,-1.5312 0,2.1562 c 0,0.554 0.446,1 1,1 l 2,0 c 0.554,0 1,-0.446 1,-1 l 0,-2.1562 1.53125,1.5312 c 0.391737,0.3917 1.014513,0.3917 1.40625,0 l 1.4375,-1.4375 c 0.391737,-0.3917 0.391737,-1.0145 0,-1.4063 l -1.53125,-1.5312 2.15625,0 c 0.554,0 1,-0.446 1,-1 l 0,-2 c 0,-0.554 -0.446,-1 -1,-1 l -2.15625,0 1.53125,-1.5312 c 0.391737,-0.3919 0.391737,-1.0146 0,-1.4063 L -83.0625,1198 c -0.391737,-0.3917 -1.014513,-0.3917 -1.40625,0 l -1.53125,1.5312 0,-2.1562 c 0,-0.554 -0.446,-1 -1,-1 l -2,0 z"
         id="rect5542"
         style="fill:url(#linearGradient5585-3);fill-opacity:1;fill-rule:nonzero;stroke:none" />
      <path
         d="m -88.46875,1197.375 c -0.294313,0 -0.53125,0.223 -0.53125,0.5 l 0,1.5938 c -0.636642,0.1302 -1.226585,0.3715 -1.75,0.7187 l -1.125,-1.125 c -0.195869,-0.1959 -0.541898,-0.1769 -0.75,0.031 l -0.65625,0.6562 c -0.208102,0.2081 -0.22712,0.5541 -0.03125,0.75 l 1.125,1.125 c -0.344523,0.5258 -0.592204,1.1116 -0.71875,1.75 l -1.59375,0 c -0.277,0 -0.5,0.2369 -0.5,0.5312 l 0,0.9376 c 0,0.2941 0.223,0.5312 0.5,0.5312 l 1.59375,0 c 0.130256,0.6365 0.371637,1.2266 0.71875,1.75 l -1.125,1.125 c -0.195868,0.1959 -0.176863,0.5419 0.03125,0.75 l 0.65625,0.6562 c 0.208111,0.2083 0.554131,0.2273 0.75,0.031 l 1.15625,-1.1563 c 0.517808,0.3395 1.09132,0.5904 1.71875,0.7188 l 0,1.625 c 0,0.277 0.236937,0.5 0.53125,0.5 l 0.9375,0 c 0.294313,0 0.53125,-0.223 0.53125,-0.5 l 0,-1.625 c 0.62743,-0.1284 1.200942,-0.3793 1.71875,-0.7188 l 1.15625,1.1563 c 0.195869,0.1959 0.541898,0.1769 0.75,-0.031 L -82.71875,1209 c 0.208102,-0.2081 0.22712,-0.5541 0.03125,-0.75 l -1.125,-1.125 c 0.347113,-0.5234 0.588494,-1.1135 0.71875,-1.75 l 1.59375,0 c 0.277,0 0.5,-0.2369 0.5,-0.5312 l 0,-0.9376 c 0,-0.2941 -0.223,-0.5312 -0.5,-0.5312 l -1.59375,0 c -0.126546,-0.6384 -0.374227,-1.2242 -0.71875,-1.75 l 1.125,-1.125 c 0.195868,-0.1959 0.176863,-0.5419 -0.03125,-0.75 l -0.65625,-0.6562 c -0.208111,-0.2083 -0.554131,-0.2273 -0.75,-0.031 l -1.125,1.125 c -0.523415,-0.3472 -1.113358,-0.5885 -1.75,-0.7187 l 0,-1.5938 c 0,-0.277 -0.236937,-0.5 -0.53125,-0.5 l -0.9375,0 z"
         id="rect5544"
         style="fill:url(#linearGradient5571-1);fill-opacity:1;fill-rule:nonzero;stroke:none" />
      <path
         d="m -85.117982,1203.6388 a 2.563262,3.1377864 0 1 1 -5.126524,0 2.563262,3.1377864 0 1 1 5.126524,0 z"
         transform="matrix(1.170372,0,0,0.95607969,14.619667,53.587601)"
         id="path5560"
         style="opacity:0.20089285;fill:#000000;fill-opacity:1;fill-rule:nonzero;stroke:none" />
      <path
         d="m -85.117982,1203.6388 a 2.563262,3.1377864 0 1 1 -5.126524,0 2.563262,3.1377864 0 1 1 5.126524,0 z"
         transform="matrix(0.78024346,0,0,0.63738279,-19.587285,437.18356)"
         id="path5562"
         style="fill:#ffffff;fill-opacity:1;fill-rule:nonzero;stroke:none" />
    </g>
  </g>
</svg>
