<?xml version="1.0" encoding="UTF-8" standalone="no"?>
<!-- Created with Inkscape (http://www.inkscape.org/) -->

<svg
   xmlns:dc="http://purl.org/dc/elements/1.1/"
   xmlns:cc="http://creativecommons.org/ns#"
   xmlns:rdf="http://www.w3.org/1999/02/22-rdf-syntax-ns#"
   xmlns:svg="http://www.w3.org/2000/svg"
   xmlns="http://www.w3.org/2000/svg"
   xmlns:xlink="http://www.w3.org/1999/xlink"
   version="1.1"
   width="16"
   height="16"
   id="svg10143">
  <defs
     id="defs10145">
    <linearGradient
       x1="-93"
       y1="1199.3622"
       x2="-83"
       y2="1209.3622"
       id="linearGradient10092"
       xlink:href="#linearGradient5573-3"
       gradientUnits="userSpaceOnUse"
       gradientTransform="matrix(0.5625,0,0,0.5625,428,-141.60516)" />
    <linearGradient
       id="linearGradient5573-3">
      <stop
         id="stop5575-8"
         style="stop-color:#ffffff;stop-opacity:1"
         offset="0" />
      <stop
         id="stop5577-2"
         style="stop-color:#bcbcbc;stop-opacity:1"
         offset="1" />
    </linearGradient>
    <linearGradient
       x1="-81"
       y1="1211.3622"
       x2="-96"
       y2="1196.3622"
       id="linearGradient10095"
       xlink:href="#linearGradient5587-5"
       gradientUnits="userSpaceOnUse"
       gradientTransform="matrix(0.5625,0,0,0.5625,428,-141.60516)" />
    <linearGradient
       id="linearGradient5587-5">
      <stop
         id="stop5589-6"
         style="stop-color:#878787;stop-opacity:1"
         offset="0" />
      <stop
         id="stop5591-4"
         style="stop-color:#ebebeb;stop-opacity:1"
         offset="1" />
    </linearGradient>
    <linearGradient
       x1="43"
       y1="1121.3622"
       x2="35"
       y2="1121.3622"
       id="linearGradient10023"
       xlink:href="#linearGradient5693-6-7"
       gradientUnits="userSpaceOnUse"
       gradientTransform="translate(334,-588.00643)" />
    <linearGradient
       id="linearGradient5693-6-7">
      <stop
         id="stop5695-6-99"
         style="stop-color:#a9a9a9;stop-opacity:1"
         offset="0" />
      <stop
         id="stop5697-3-8"
         style="stop-color:#ebebeb;stop-opacity:1"
         offset="1" />
    </linearGradient>
    <linearGradient
       x1="34"
       y1="1119.3622"
       x2="44"
       y2="1119.3622"
       id="linearGradient10021"
       xlink:href="#linearGradient5699-4-96"
       gradientUnits="userSpaceOnUse"
       gradientTransform="translate(334,-588.00643)" />
    <linearGradient
       id="linearGradient5699-4-96">
      <stop
         id="stop5701-6-6"
         style="stop-color:#ffffff;stop-opacity:0.80869567"
         offset="0" />
      <stop
         id="stop5707-5-5"
         style="stop-color:#ffffff;stop-opacity:1"
         offset="0.5" />
      <stop
         id="stop5703-2-0"
         style="stop-color:#ffffff;stop-opacity:0.6695652"
         offset="1" />
    </linearGradient>
    <linearGradient
       x1="45"
       y1="1125.3622"
       x2="31"
       y2="1112.3622"
       id="linearGradient10019"
       xlink:href="#linearGradient5587-1-3"
       gradientUnits="userSpaceOnUse"
       gradientTransform="translate(334,-588.00643)" />
    <linearGradient
       id="linearGradient5587-1-3">
      <stop
         id="stop5589-4-7"
         style="stop-color:#878787;stop-opacity:1"
         offset="0" />
      <stop
         id="stop5591-8-53"
         style="stop-color:#ebebeb;stop-opacity:1"
         offset="1" />
    </linearGradient>
  </defs>
  <metadata
     id="metadata10148">
    <rdf:RDF>
      <cc:Work
         rdf:about="">
        <dc:format>image/svg+xml</dc:format>
        <dc:type
           rdf:resource="http://purl.org/dc/dcmitype/StillImage" />
        <dc:title></dc:title>
      </cc:Work>
    </rdf:RDF>
  </metadata>
  <g
     transform="translate(-367,-524.36859)"
     id="layer1">
    <rect
       width="12"
       height="14"
       rx="6"
       ry="3"
       x="367"
       y="524.35577"
       id="rect10007"
       style="fill:url(#linearGradient10019);fill-opacity:1;fill-rule:nonzero;stroke:none;display:inline" />
    <rect
       width="10"
       height="12"
       rx="5"
       ry="2"
       x="368"
       y="525.35577"
       id="rect10009"
       style="fill:url(#linearGradient10021);fill-opacity:1;fill-rule:nonzero;stroke:none;display:inline" />
    <path
       d="m 369,527.86859 0,2.5 0,2 0,2 c 0,1 1.784,2 4,2 2.216,0 4,-1 4,-2 l 0,-2 0,-2 0,-2.5 c 0,0.8284 -1.79086,1.5 -4,1.5 -2.20914,0 -4,-0.6716 -4,-1.5 z"
       id="path10011"
       style="fill:url(#linearGradient10023);fill-opacity:1;fill-rule:nonzero;stroke:none;display:inline" />
    <path
       d="m 377.9375,531.36859 c -0.31163,0 -0.5625,0.2509 -0.5625,0.5625 l 0,1.1875 -0.875,-0.8438 c -0.22035,-0.2202 -0.5609,-0.2202 -0.78125,0 l -0.8125,0.8126 c -0.22035,0.2203 -0.22035,0.5608 0,0.7812 l 0.875,0.875 -1.21875,0 c -0.31163,0 -0.5625,0.2509 -0.5625,0.5625 l 0,1.125 c 0,0.3116 0.25087,0.5625 0.5625,0.5625 l 1.21875,0 -0.875,0.8438 c -0.22035,0.2203 -0.22035,0.5609 0,0.7812 l 0.8125,0.8125 c 0.22035,0.2204 0.5609,0.2204 0.78125,0 l 0.875,-0.8437 0,1.2187 c 0,0.3116 0.25087,0.5625 0.5625,0.5625 l 1.125,0 c 0.31162,0 0.5625,-0.2509 0.5625,-0.5625 l 0,-1.2187 0.875,0.8437 c 0.22035,0.2204 0.5609,0.2204 0.78125,0 l 0.8125,-0.8125 c 0.22035,-0.2203 0.22035,-0.5609 0,-0.7812 l -0.875,-0.8438 1.21875,0 c 0.31162,0 0.5625,-0.2509 0.5625,-0.5625 l 0,-1.125 c 0,-0.3116 -0.25088,-0.5625 -0.5625,-0.5625 l -1.21875,0 0.875,-0.875 c 0.22035,-0.2205 0.22035,-0.5609 0,-0.7812 l -0.8125,-0.8126 c -0.22035,-0.2202 -0.5609,-0.2202 -0.78125,0 l -0.875,0.8438 0,-1.1875 c 0,-0.3116 -0.25088,-0.5625 -0.5625,-0.5625 l -1.125,0 z m 0.5625,3.3438 c 0.62131,0 1.125,0.5036 1.125,1.125 0,0.6213 -0.50369,1.125 -1.125,1.125 -0.62131,0 -1.125,-0.5037 -1.125,-1.125 0,-0.6214 0.50369,-1.125 1.125,-1.125 z"
       id="path10033"
       style="fill:url(#linearGradient10095);fill-opacity:1;fill-rule:nonzero;stroke:none;display:inline" />
    <path
       d="m 378.25,531.93109 c -0.16555,0 -0.3125,0.1255 -0.3125,0.2813 l 0,0.875 c -0.35811,0.073 -0.70558,0.2109 -1,0.4062 l -0.625,-0.625 c -0.11018,-0.1102 -0.28919,-0.086 -0.40625,0.031 l -0.375,0.3438 c -0.11706,0.117 -0.14143,0.3273 -0.0312,0.4375 l 0.65625,0.625 c -0.19379,0.2958 -0.33507,0.6409 -0.40625,1 l -0.90625,0 c -0.15581,0 -0.28125,0.1157 -0.28125,0.2813 l 0,0.5312 c 0,0.1655 0.12544,0.3125 0.28125,0.3125 l 0.90625,0 c 0.0733,0.3581 0.211,0.6744 0.40625,0.9687 l -0.65625,0.625 c -0.11018,0.1103 -0.0858,0.3204 0.0312,0.4376 l 0.375,0.375 c 0.11706,0.1171 0.29607,0.1108 0.40625,0 l 0.65625,-0.6563 c 0.29127,0.191 0.61582,0.3341 0.96875,0.4063 l 0,0.9374 c 0,0.1558 0.14695,0.2813 0.3125,0.2813 l 0.5,0 c 0.16555,0 0.3125,-0.1254 0.3125,-0.2813 l 0,-0.9374 c 0.35293,-0.072 0.67748,-0.2153 0.96875,-0.4063 l 0.65625,0.6563 c 0.11018,0.1102 0.28919,0.1159 0.40625,0 l 0.375,-0.375 c 0.11706,-0.117 0.14142,-0.3273 0.0312,-0.4376 l -0.65625,-0.625 c 0.19525,-0.2943 0.33298,-0.6107 0.40625,-0.9687 l 0.90625,0 c 0.15581,0 0.28125,-0.147 0.28125,-0.3125 l 0,-0.5312 c 0,-0.1655 -0.12544,-0.2813 -0.28125,-0.2813 l -0.90625,0 c -0.0712,-0.3591 -0.21246,-0.7042 -0.40625,-1 l 0.65625,-0.625 c 0.11018,-0.1102 0.0858,-0.3204 -0.0312,-0.4375 l -0.375,-0.3438 c -0.11706,-0.1171 -0.29607,-0.142 -0.40625,-0.031 l -0.625,0.625 c -0.29442,-0.1953 -0.64189,-0.333 -1,-0.4062 l 0,-0.875 c 0,-0.1558 -0.14695,-0.2813 -0.3125,-0.2813 l -0.5,0 z m 0.25,2.7813 c 0.62131,0 1.125,0.5036 1.125,1.125 0,0.6213 -0.50369,1.125 -1.125,1.125 -0.62131,0 -1.125,-0.5037 -1.125,-1.125 0,-0.6214 0.50369,-1.125 1.125,-1.125 z"
       id="path10035"
       style="fill:url(#linearGradient10092);fill-opacity:1;fill-rule:nonzero;stroke:none;display:inline" />
    <path
       d="m 378.5,534.14979 c -0.93197,10e-5 -1.6875,0.7556 -1.6875,1.6876 0,0.9319 0.75553,1.6874 1.6875,1.6874 0.93197,10e-5 1.6875,-0.7555 1.6875,-1.6874 0,-0.932 -0.75553,-1.6876 -1.6875,-1.6876 z m 0,0.5626 c 0.62131,0 1.125,0.5036 1.125,1.125 0,0.6213 -0.50369,1.125 -1.125,1.125 -0.62131,0 -1.125,-0.5037 -1.125,-1.125 0,-0.6214 0.50369,-1.125 1.125,-1.125 z"
       id="path10037"
       style="opacity:0.20089285;fill:#000000;fill-opacity:1;fill-rule:nonzero;stroke:none;display:inline" />
  </g>
</svg>
