<?xml version="1.0" encoding="UTF-8" standalone="no"?>
<!-- Created with Inkscape (http://www.inkscape.org/) -->

<svg
   xmlns:dc="http://purl.org/dc/elements/1.1/"
   xmlns:cc="http://creativecommons.org/ns#"
   xmlns:rdf="http://www.w3.org/1999/02/22-rdf-syntax-ns#"
   xmlns:svg="http://www.w3.org/2000/svg"
   xmlns="http://www.w3.org/2000/svg"
   xmlns:xlink="http://www.w3.org/1999/xlink"
   version="1.1"
   width="16"
   height="16"
   id="svg9247">
  <defs
     id="defs9249">
    <linearGradient
       x1="760"
       y1="795.86218"
       x2="766"
       y2="795.86218"
       id="linearGradient9181"
       xlink:href="#linearGradient4298"
       gradientUnits="userSpaceOnUse"
       gradientTransform="translate(332.46095,-765.13983)" />
    <linearGradient
       id="linearGradient4298">
      <stop
         id="stop4300"
         style="stop-color:#e5cb3b;stop-opacity:1"
         offset="0" />
      <stop
         id="stop4302"
         style="stop-color:#d77c2a;stop-opacity:1"
         offset="1" />
    </linearGradient>
    <linearGradient
       x1="765.27661"
       y1="789.09869"
       x2="761.034"
       y2="789.09869"
       id="linearGradient9183"
       xlink:href="#linearGradient4320"
       gradientUnits="userSpaceOnUse" />
    <linearGradient
       id="linearGradient4320">
      <stop
         id="stop4322"
         style="stop-color:#e8c4ad;stop-opacity:1"
         offset="0" />
      <stop
         id="stop4324"
         style="stop-color:#f6e8dc;stop-opacity:1"
         offset="1" />
    </linearGradient>
    <linearGradient
       x1="167"
       y1="756.36218"
       x2="183"
       y2="767.36218"
       id="linearGradient9205"
       xlink:href="#linearGradient8448"
       gradientUnits="userSpaceOnUse"
       gradientTransform="translate(333.57143,-92.35714)" />
    <linearGradient
       id="linearGradient8448">
      <stop
         id="stop8450"
         style="stop-color:#a4bae3;stop-opacity:1"
         offset="0" />
      <stop
         id="stop8452"
         style="stop-color:#456eba;stop-opacity:1"
         offset="1" />
    </linearGradient>
  </defs>
  <metadata
     id="metadata9252">
    <rdf:RDF>
      <cc:Work
         rdf:about="">
        <dc:format>image/svg+xml</dc:format>
        <dc:type
           rdf:resource="http://purl.org/dc/dcmitype/StillImage" />
        <dc:title></dc:title>
      </cc:Work>
    </rdf:RDF>
  </metadata>
  <g
     transform="translate(-500.57144,-661.50507)"
     id="layer1">
    <rect
       width="16"
       height="11"
       rx="1"
       ry="1"
       x="500.57144"
       y="664.00507"
       id="rect9187"
       style="fill:url(#linearGradient9205);fill-opacity:1;stroke:none;display:inline" />
    <rect
       width="14"
       height="9"
       rx="1"
       ry="0"
       x="501.57144"
       y="665.00507"
       id="rect9191"
       style="opacity:0.9;fill:#ffffff;fill-opacity:1;stroke:none;display:inline" />
    <rect
       width="12"
       height="7"
       rx="0"
       x="502.57144"
       y="666.00507"
       id="rect9193"
       style="fill:#cbdaf4;fill-opacity:1;stroke:none;display:inline" />
    <path
       d="m 508.57143,667.26786 c -0.75,0 -1.5,0.25 -2,0.75 l -4,4 0,1 0.5625,0 3.9375,-4 c 1,-1 1.96875,-1 2.96875,0 l 3.9375,4 0.59375,0 0,-1 -4,-4 c -0.5,-0.5 -1.25,-0.75 -2,-0.75 z"
       id="path9195"
       style="opacity:0.4;fill:#86a9e5;fill-opacity:1;stroke:none;display:inline" />
    <path
       d="m 502.57143,666.00504 12,0 0,1 -4,4 c -1,1 -3,1 -4,0 l -4,-4 z"
       id="path9198"
       style="fill:#92b2e8;fill-opacity:1;stroke:none;display:inline" />
    <path
       d="m 503.17368,666.00504 10.83969,0 -3.95017,4 c -1,1 -1.96144,1 -2.96144,0 z"
       id="path9200"
       style="fill:#ffffff;fill-opacity:1;stroke:none;display:inline" />
    <path
       d="m 504.57143,666.00504 8,0 -4,4 z"
       id="path9202"
       style="opacity:0.2;fill:#92b2e8;fill-opacity:1;stroke:none;display:inline" />
    <g
       transform="matrix(0.71586158,0,0,0.71380936,-28.010941,99.18151)"
       id="g9156"
       style="display:inline">
      <rect
         width="6"
         height="15"
         x="1092.4609"
         y="23.222353"
         transform="matrix(0.70710678,0.70710678,-0.70710678,0.70710678,0,0)"
         id="rect9158"
         style="fill:url(#linearGradient9181);fill-opacity:1;fill-rule:nonzero;stroke:none" />
      <rect
         width="1"
         height="13"
         x="1093.4609"
         y="24.222353"
         transform="matrix(0.70710678,0.70710678,-0.70710678,0.70710678,0,0)"
         id="rect9160"
         style="fill:#f6e9b3;fill-opacity:1;fill-rule:nonzero;stroke:none" />
      <rect
         width="1"
         height="14"
         x="1094.4609"
         y="24.222353"
         transform="matrix(0.70710678,0.70710678,-0.70710678,0.70710678,0,0)"
         id="rect9162"
         style="fill:#f3d42b;fill-opacity:1;fill-rule:nonzero;stroke:none" />
      <rect
         width="1"
         height="14"
         x="1095.4609"
         y="24.222353"
         transform="matrix(0.70710678,0.70710678,-0.70710678,0.70710678,0,0)"
         id="rect9164"
         style="fill:#f7f795;fill-opacity:0.87628868;fill-rule:nonzero;stroke:none" />
      <rect
         width="1"
         height="13"
         x="1096.4609"
         y="24.222353"
         transform="matrix(0.70710678,0.70710678,-0.70710678,0.70710678,0,0)"
         id="rect9166"
         style="fill:#deac5b;fill-opacity:1;fill-rule:nonzero;stroke:none" />
      <path
         d="m 745.45927,799.51383 -0.0884,4.37523 4.33103,-0.13259 z"
         id="path9168"
         style="fill:#67432c;fill-opacity:1;stroke:none" />
      <path
         d="m 746.32262,800.37719 -0.0887,2.06114 0.54619,0.54901 2.08262,-0.0703 z"
         id="path9171"
         style="fill:#dca684;fill-opacity:1;stroke:none" />
      <path
         d="m 766,788.36218 a 3,2 0 1 1 -6,0 3,2 0 1 1 6,0 z"
         transform="matrix(0.70710678,0.70710678,-0.70710678,0.70710678,776.12096,-305.95016)"
         id="path9173"
         style="fill:#d8a674;fill-opacity:1;fill-rule:nonzero;stroke:none" />
      <path
         d="m 766,788.36218 a 3,2 0 1 1 -6,0 3,2 0 1 1 6,0 z"
         transform="matrix(0.47140462,0.47140462,-0.35355416,0.35355416,677.23419,152.61811)"
         id="path9175"
         style="fill:url(#linearGradient9183);fill-opacity:1;fill-rule:nonzero;stroke:none" />
    </g>
  </g>
</svg>
