<?xml version="1.0" encoding="UTF-8" standalone="no"?>
<!-- Created with Inkscape (http://www.inkscape.org/) -->

<svg
   xmlns:dc="http://purl.org/dc/elements/1.1/"
   xmlns:cc="http://creativecommons.org/ns#"
   xmlns:rdf="http://www.w3.org/1999/02/22-rdf-syntax-ns#"
   xmlns:svg="http://www.w3.org/2000/svg"
   xmlns="http://www.w3.org/2000/svg"
   xmlns:xlink="http://www.w3.org/1999/xlink"
   version="1.1"
   width="16"
   height="16"
   id="svg8184">
  <defs
     id="defs8186">
    <linearGradient
       x1="186.39999"
       y1="979.16217"
       x2="197.60001"
       y2="987.56219"
       id="linearGradient8138"
       xlink:href="#linearGradient7999"
       gradientUnits="userSpaceOnUse" />
    <linearGradient
       id="linearGradient7999">
      <stop
         id="stop8001"
         style="stop-color:#f9e67d;stop-opacity:1"
         offset="0" />
      <stop
         id="stop8003"
         style="stop-color:#f1c71f;stop-opacity:1"
         offset="1" />
    </linearGradient>
    <linearGradient
       x1="188.5"
       y1="979.86218"
       x2="197.83333"
       y2="988.02887"
       id="linearGradient8136"
       xlink:href="#linearGradient8005"
       gradientUnits="userSpaceOnUse" />
    <linearGradient
       id="linearGradient8005">
      <stop
         id="stop8007"
         style="stop-color:#fffbd0;stop-opacity:1"
         offset="0" />
      <stop
         id="stop8009"
         style="stop-color:#fffbd0;stop-opacity:0.69999999"
         offset="1" />
    </linearGradient>
    <linearGradient
       x1="187"
       y1="978.36218"
       x2="197"
       y2="988.36218"
       id="linearGradient8134"
       xlink:href="#linearGradient7983"
       gradientUnits="userSpaceOnUse" />
    <linearGradient
       id="linearGradient7983">
      <stop
         id="stop7985"
         style="stop-color:#f9d052;stop-opacity:1"
         offset="0" />
      <stop
         id="stop7987"
         style="stop-color:#d29331;stop-opacity:1"
         offset="1" />
    </linearGradient>
  </defs>
  <metadata
     id="metadata8189">
    <rdf:RDF>
      <cc:Work
         rdf:about="">
        <dc:format>image/svg+xml</dc:format>
        <dc:type
           rdf:resource="http://purl.org/dc/dcmitype/StillImage" />
        <dc:title></dc:title>
      </cc:Work>
    </rdf:RDF>
  </metadata>
  <g
     transform="translate(-189.14285,-495.79074)"
     id="layer1">
    <path
       d="m 199,983.36218 a 7,7 0 1 1 -14,0 7,7 0 1 1 14,0 z"
       transform="translate(5.1428571,-479.57143)"
       id="path8122"
       style="fill:url(#linearGradient8134);fill-opacity:1;stroke:none;display:inline" />
    <path
       d="m 199,983.36218 a 7,7 0 1 1 -14,0 7,7 0 1 1 14,0 z"
       transform="matrix(0.85714286,0,0,0.85714286,32.571427,-339.09112)"
       id="path8124"
       style="opacity:0.8;fill:url(#linearGradient8136);fill-opacity:1;stroke:none;display:inline" />
    <path
       d="m 199,983.36218 a 7,7 0 1 1 -14,0 7,7 0 1 1 14,0 z"
       transform="matrix(0.7142857,0,0,0.7142857,60.000007,-198.61079)"
       id="path8126"
       style="fill:url(#linearGradient8138);fill-opacity:1;stroke:none;display:inline" />
    <rect
       width="1"
       height="1"
       x="195.14285"
       y="500.79074"
       id="rect8128"
       style="opacity:0.5;fill:#552200;fill-opacity:1;stroke:none;display:inline" />
    <rect
       width="1"
       height="1"
       x="198.14285"
       y="500.79074"
       id="rect8130"
       style="opacity:0.5;fill:#552200;fill-opacity:1;stroke:none;display:inline" />
    <path
       d="m 193.14286,502.79075 0,1.01282 c 0,2.20914 1.79086,4 4,4 2.20914,0 4,-1.79086 4,-4 l 0,-1.01282 z"
       id="path8142"
       style="fill:#ffffff;fill-opacity:1;stroke:none;display:inline" />
    <rect
       width="8"
       height="1"
       x="193.14285"
       y="502.79074"
       id="rect8147"
       style="opacity:0.5;fill:#552200;fill-opacity:1;stroke:none;display:inline" />
    <rect
       width="8"
       height="1"
       x="193.14285"
       y="503.79074"
       id="rect8151"
       style="opacity:0.1;fill:#552200;fill-opacity:1;stroke:none;display:inline" />
  </g>
</svg>
