<?xml version="1.0" encoding="UTF-8" standalone="no"?>
<!-- Created with Inkscape (http://www.inkscape.org/) -->

<svg
   xmlns:dc="http://purl.org/dc/elements/1.1/"
   xmlns:cc="http://creativecommons.org/ns#"
   xmlns:rdf="http://www.w3.org/1999/02/22-rdf-syntax-ns#"
   xmlns:svg="http://www.w3.org/2000/svg"
   xmlns="http://www.w3.org/2000/svg"
   xmlns:xlink="http://www.w3.org/1999/xlink"
   version="1.1"
   width="16"
   height="16"
   id="svg8050">
  <defs
     id="defs8052">
    <linearGradient
       x1="186.39999"
       y1="979.16217"
       x2="197.60001"
       y2="987.56219"
       id="linearGradient7997"
       xlink:href="#linearGradient7999"
       gradientUnits="userSpaceOnUse" />
    <linearGradient
       id="linearGradient7999">
      <stop
         id="stop8001"
         style="stop-color:#f9e67d;stop-opacity:1"
         offset="0" />
      <stop
         id="stop8003"
         style="stop-color:#f1c71f;stop-opacity:1"
         offset="1" />
    </linearGradient>
    <linearGradient
       x1="188.5"
       y1="979.86218"
       x2="197.83333"
       y2="988.02887"
       id="linearGradient8011"
       xlink:href="#linearGradient8005"
       gradientUnits="userSpaceOnUse" />
    <linearGradient
       id="linearGradient8005">
      <stop
         id="stop8007"
         style="stop-color:#fffbd0;stop-opacity:1"
         offset="0" />
      <stop
         id="stop8009"
         style="stop-color:#fffbd0;stop-opacity:0.69999999"
         offset="1" />
    </linearGradient>
    <linearGradient
       x1="187"
       y1="978.36218"
       x2="197"
       y2="988.36218"
       id="linearGradient7977"
       xlink:href="#linearGradient7983"
       gradientUnits="userSpaceOnUse" />
    <linearGradient
       id="linearGradient7983">
      <stop
         id="stop7985"
         style="stop-color:#f9d052;stop-opacity:1"
         offset="0" />
      <stop
         id="stop7987"
         style="stop-color:#d29331;stop-opacity:1"
         offset="1" />
    </linearGradient>
  </defs>
  <metadata
     id="metadata8055">
    <rdf:RDF>
      <cc:Work
         rdf:about="">
        <dc:format>image/svg+xml</dc:format>
        <dc:type
           rdf:resource="http://purl.org/dc/dcmitype/StillImage" />
        <dc:title></dc:title>
      </cc:Work>
    </rdf:RDF>
  </metadata>
  <g
     transform="translate(-206.28572,-601.50507)"
     id="layer1">
    <path
       d="m 199,983.36218 a 7,7 0 1 1 -14,0 7,7 0 1 1 14,0 z"
       transform="translate(22.285714,-373.85714)"
       id="path7969"
       style="fill:url(#linearGradient7977);fill-opacity:1;stroke:none;display:inline" />
    <path
       d="m 199,983.36218 a 7,7 0 1 1 -14,0 7,7 0 1 1 14,0 z"
       transform="matrix(0.85714286,0,0,0.85714286,49.714284,-233.37683)"
       id="path7979"
       style="opacity:0.8;fill:url(#linearGradient8011);fill-opacity:1;stroke:none;display:inline" />
    <path
       d="m 199,983.36218 a 7,7 0 1 1 -14,0 7,7 0 1 1 14,0 z"
       transform="matrix(0.7142857,0,0,0.7142857,77.142864,-92.8965)"
       id="path7989"
       style="fill:url(#linearGradient7997);fill-opacity:1;stroke:none;display:inline" />
    <rect
       width="1"
       height="1"
       x="212.28572"
       y="606.50507"
       id="rect8013"
       style="opacity:0.5;fill:#552200;fill-opacity:1;stroke:none;display:inline" />
    <rect
       width="1"
       height="1"
       x="215.28572"
       y="606.50507"
       id="rect8015"
       style="opacity:0.5;fill:#552200;fill-opacity:1;stroke:none;display:inline" />
    <path
       d="m 211.28571,610.50504 c 2,2 4,2 6,0"
       id="path8017"
       style="opacity:0.5;fill:none;stroke:#552200;stroke-width:1px;stroke-linecap:round;stroke-linejoin:round;stroke-opacity:1;display:inline" />
  </g>
</svg>
