<?xml version="1.0" encoding="UTF-8" standalone="no"?>
<!-- Created with Inkscape (http://www.inkscape.org/) -->

<svg
   xmlns:dc="http://purl.org/dc/elements/1.1/"
   xmlns:cc="http://creativecommons.org/ns#"
   xmlns:rdf="http://www.w3.org/1999/02/22-rdf-syntax-ns#"
   xmlns:svg="http://www.w3.org/2000/svg"
   xmlns="http://www.w3.org/2000/svg"
   xmlns:xlink="http://www.w3.org/1999/xlink"
   version="1.1"
   width="16.000008"
   height="16.000017"
   id="svg7881">
  <defs
     id="defs7883">
    <linearGradient
       x1="-366.60001"
       y1="-69.237816"
       x2="-372.20001"
       y2="-74.837814"
       id="linearGradient7653"
       xlink:href="#linearGradient4169"
       gradientUnits="userSpaceOnUse" />
    <linearGradient
       id="linearGradient4169">
      <stop
         id="stop4171"
         style="stop-color:#ff7b1a;stop-opacity:1"
         offset="0" />
      <stop
         id="stop4173"
         style="stop-color:#ffc499;stop-opacity:1"
         offset="1" />
    </linearGradient>
    <linearGradient
       x1="-373"
       y1="-75.637817"
       x2="-363"
       y2="-65.637817"
       id="linearGradient7651"
       xlink:href="#linearGradient4161"
       gradientUnits="userSpaceOnUse" />
    <linearGradient
       id="linearGradient4161">
      <stop
         id="stop4163"
         style="stop-color:#d04f00;stop-opacity:1"
         offset="0" />
      <stop
         id="stop4165"
         style="stop-color:#933f0d;stop-opacity:1"
         offset="1" />
    </linearGradient>
    <linearGradient
       x1="462"
       y1="195.36218"
       x2="465"
       y2="198.36218"
       id="linearGradient7643"
       xlink:href="#linearGradient4298"
       gradientUnits="userSpaceOnUse"
       gradientTransform="translate(-177.14286,439.57144)" />
    <linearGradient
       id="linearGradient4298">
      <stop
         id="stop4300"
         style="stop-color:#e5cb3b;stop-opacity:1"
         offset="0" />
      <stop
         id="stop4302"
         style="stop-color:#d77c2a;stop-opacity:1"
         offset="1" />
    </linearGradient>
    <linearGradient
       x1="459"
       y1="197.36218"
       x2="462"
       y2="201.36218"
       id="linearGradient7641"
       xlink:href="#linearGradient11658"
       gradientUnits="userSpaceOnUse"
       gradientTransform="translate(-177.14286,439.57144)" />
    <linearGradient
       id="linearGradient11658">
      <stop
         id="stop11662"
         style="stop-color:#fbefbc;stop-opacity:1"
         offset="0" />
      <stop
         id="stop11664"
         style="stop-color:#f3d54c;stop-opacity:1"
         offset="1" />
    </linearGradient>
    <linearGradient
       x1="456"
       y1="198.36218"
       x2="465"
       y2="201.36218"
       id="linearGradient7639"
       xlink:href="#linearGradient4298"
       gradientUnits="userSpaceOnUse"
       gradientTransform="translate(-177.14286,439.57144)" />
    <linearGradient
       id="linearGradient7867">
      <stop
         id="stop7869"
         style="stop-color:#e5cb3b;stop-opacity:1"
         offset="0" />
      <stop
         id="stop7871"
         style="stop-color:#d77c2a;stop-opacity:1"
         offset="1" />
    </linearGradient>
  </defs>
  <metadata
     id="metadata7886">
    <rdf:RDF>
      <cc:Work
         rdf:about="">
        <dc:format>image/svg+xml</dc:format>
        <dc:type
           rdf:resource="http://purl.org/dc/dcmitype/StillImage" />
        <dc:title></dc:title>
      </cc:Work>
    </rdf:RDF>
  </metadata>
  <g
     transform="translate(-274.85714,-632.93359)"
     id="layer1">
    <path
       d="m 280.85714,639.93361 -1,-1 0,-2 4,-4 2,0 5,5 0,2 -4,4 -2,0 -1,-1 -6,6 -2,0 -1,-1 0,-4 1,0 0,-1 1,0 0,-1 1,0 0,-1 2,0 z"
       id="path7631"
       style="fill:url(#linearGradient7639);fill-opacity:1;stroke:none;display:inline" />
    <path
       d="m 282.29464,639.93361 -1.4375,-1.42187 0,-1.125 3.42188,-3.45313 1.21874,0 4.35938,4.4375 0,1.15625 -3.45313,3.40625 -1.14062,0 -1.40625,-1.42187 -6.46875,6.42187 -1.53125,0 0,-3 3,-3 1.45313,0 z"
       id="path7633"
       style="opacity:0.9;fill:#ffffff;stroke:none;display:inline" />
    <path
       d="m 282.85714,639.93361 -1,-2 2,-2 1,-1 4,4 -1,1 -2,2 -2,-1 -1,1 -5,5 -1,0 0,-2 2,-2 1,0 1,-1 z"
       id="path7635"
       style="fill:url(#linearGradient7641);fill-opacity:1;stroke:none;display:inline" />
    <path
       d="m 285.85714,635.93361 2,2 -1,1 -2,-2 z"
       id="path7637"
       style="fill:url(#linearGradient7643);fill-opacity:1;stroke:none;display:inline" />
    <path
       d="m -361,-70.637817 a 7,7 0 1 1 -14,0 7,7 0 1 1 14,0 z"
       transform="matrix(0.5,0,0,0.5,471.35714,680.75252)"
       id="path7645"
       style="fill:url(#linearGradient7651);fill-opacity:1;fill-rule:nonzero;stroke:none;display:inline" />
    <path
       d="m -361,-70.637817 a 7,7 0 1 1 -14,0 7,7 0 1 1 14,0 z"
       transform="matrix(0.3571429,0,0,0.3571429,418.78573,670.66141)"
       id="path7647"
       style="fill:url(#linearGradient7653);fill-opacity:1;fill-rule:nonzero;stroke:none;display:inline" />
    <rect
       width="3"
       height="1"
       rx="0"
       ry="1"
       x="285.85715"
       y="644.93359"
       id="rect7649"
       style="fill:#ffffff;fill-opacity:1;fill-rule:nonzero;stroke:none;display:inline" />
  </g>
</svg>
