<?xml version="1.0" encoding="UTF-8" standalone="no"?>
<!-- Created with Inkscape (http://www.inkscape.org/) -->

<svg
   xmlns:dc="http://purl.org/dc/elements/1.1/"
   xmlns:cc="http://creativecommons.org/ns#"
   xmlns:rdf="http://www.w3.org/1999/02/22-rdf-syntax-ns#"
   xmlns:svg="http://www.w3.org/2000/svg"
   xmlns="http://www.w3.org/2000/svg"
   xmlns:xlink="http://www.w3.org/1999/xlink"
   version="1.1"
   width="16"
   height="16.007563"
   id="svg4702">
  <defs
     id="defs4704">
    <linearGradient
       x1="467"
       y1="765.36218"
       x2="477"
       y2="765.36218"
       id="linearGradient4696"
       xlink:href="#linearGradient4594"
       gradientUnits="userSpaceOnUse"
       gradientTransform="translate(0,102)" />
    <linearGradient
       id="linearGradient4594">
      <stop
         id="stop4596"
         style="stop-color:#f6da68;stop-opacity:1"
         offset="0" />
      <stop
         id="stop4600"
         style="stop-color:#fbefbc;stop-opacity:1"
         offset="0.5" />
      <stop
         id="stop4598"
         style="stop-color:#f2c640;stop-opacity:1"
         offset="1" />
    </linearGradient>
    <radialGradient
       cx="472"
       cy="766.38678"
       r="6"
       fx="472"
       fy="766.38678"
       id="radialGradient4389"
       xlink:href="#linearGradient4391"
       gradientUnits="userSpaceOnUse"
       gradientTransform="translate(-97,-236.02007)"
       spreadMethod="pad" />
    <linearGradient
       id="linearGradient4391">
      <stop
         id="stop4393"
         style="stop-color:#606060;stop-opacity:1"
         offset="0" />
      <stop
         id="stop4395"
         style="stop-color:#c8c8c8;stop-opacity:1"
         offset="1" />
    </linearGradient>
    <linearGradient
       x1="466"
       y1="761.36218"
       x2="478"
       y2="769.36218"
       id="linearGradient4329"
       xlink:href="#linearGradient4298"
       gradientUnits="userSpaceOnUse"
       gradientTransform="translate(-97,-229.99622)" />
    <linearGradient
       id="linearGradient4298">
      <stop
         id="stop4300"
         style="stop-color:#e5cb3b;stop-opacity:1"
         offset="0" />
      <stop
         id="stop4302"
         style="stop-color:#d77c2a;stop-opacity:1"
         offset="1" />
    </linearGradient>
  </defs>
  <metadata
     id="metadata4707">
    <rdf:RDF>
      <cc:Work
         rdf:about="">
        <dc:format>image/svg+xml</dc:format>
        <dc:type
           rdf:resource="http://purl.org/dc/dcmitype/StillImage" />
        <dc:title></dc:title>
      </cc:Work>
    </rdf:RDF>
  </metadata>
  <g
     transform="translate(-367,-524.3584)"
     id="layer1">
    <rect
       width="14"
       height="10"
       rx="1"
       ry="1"
       x="368"
       y="530.36597"
       id="rect4320"
       style="fill:url(#linearGradient4329);fill-opacity:1;fill-rule:nonzero;stroke:none;display:inline" />
    <rect
       width="12"
       height="8"
       ry="0"
       x="369"
       y="531.36597"
       id="rect4331"
       style="opacity:0.91517861;fill:#f9f3d6;fill-opacity:1;fill-rule:nonzero;stroke:none;display:inline" />
    <path
       d="m 373.5,524.36596 c -2.5274,0.25514 -4.5,2.40313 -4.5,5 l 0,1 3,0 0,-1 c 0,-1.108 0.892,-2 2,-2 l 2,0 c 1.108,0 2,0.892 2,2 l 0,1 3,0 0,-1 c 0,-2.77 -2.23,-5 -5,-5 l -2,0 c -0.17313,0 -0.33151,-0.017 -0.5,0 z"
       id="rect4359"
       style="fill:url(#radialGradient4389);fill-opacity:1;fill-rule:nonzero;stroke:none;display:inline" />
    <path
       d="m 374,525.37878 c -2.216,0 -4,1.784 -4,4 l 0,1 1,0 0,-1 c 0,-1.662 1.338,-3 3,-3 l 2,0 c 1.662,0 3,1.338 3,3 l 0,1 1,0 0,-1 c 0,-2.216 -1.784,-4 -4,-4 l -2,0 z"
       id="rect4397"
       style="opacity:0.32142861;fill:#ffffff;fill-opacity:1;fill-rule:nonzero;stroke:none;display:inline" />
    <g
       transform="translate(-97,-331.99622)"
       id="g4678"
       style="display:inline">
      <rect
         width="10"
         height="6"
         ry="0"
         x="467"
         y="864.36218"
         id="rect4680"
         style="fill:url(#linearGradient4696);fill-opacity:1;fill-rule:nonzero;stroke:none" />
      <rect
         width="2"
         height="1"
         x="474"
         y="865.36218"
         id="rect4682"
         style="opacity:0.3392857;fill:#b85e10;fill-opacity:1;fill-rule:nonzero;stroke:none" />
      <rect
         width="2"
         height="1"
         x="474"
         y="867.36218"
         id="rect4684"
         style="opacity:0.3392857;fill:#b85e10;fill-opacity:1;fill-rule:nonzero;stroke:none" />
      <rect
         width="2"
         height="3"
         x="471"
         y="865.36218"
         id="rect4686"
         style="opacity:0.70089285;fill:#d58608;fill-opacity:1;fill-rule:nonzero;stroke:none" />
      <rect
         width="1"
         height="2"
         ry="0"
         x="472"
         y="866.36218"
         id="rect4688"
         style="opacity:0.2;fill:#000000;fill-opacity:1;fill-rule:nonzero;stroke:none" />
      <rect
         width="2"
         height="1"
         x="468"
         y="865.36218"
         id="rect4690"
         style="opacity:0.3392857;fill:#b85e10;fill-opacity:1;fill-rule:nonzero;stroke:none" />
      <rect
         width="2"
         height="1"
         x="468"
         y="867.36218"
         id="rect4692"
         style="opacity:0.3392857;fill:#b85e10;fill-opacity:1;fill-rule:nonzero;stroke:none" />
      <rect
         width="8"
         height="1"
         x="468"
         y="869.36218"
         id="rect4694"
         style="opacity:0.3392857;fill:#b85e10;fill-opacity:1;fill-rule:nonzero;stroke:none" />
    </g>
  </g>
</svg>
