<?xml version="1.0" encoding="UTF-8" standalone="no"?>
<!-- Created with Inkscape (http://www.inkscape.org/) -->

<svg
   xmlns:dc="http://purl.org/dc/elements/1.1/"
   xmlns:cc="http://creativecommons.org/ns#"
   xmlns:rdf="http://www.w3.org/1999/02/22-rdf-syntax-ns#"
   xmlns:svg="http://www.w3.org/2000/svg"
   xmlns="http://www.w3.org/2000/svg"
   version="1.1"
   width="16"
   height="16"
   id="svg7818">
  <defs
     id="defs7820" />
  <metadata
     id="metadata7823">
    <rdf:RDF>
      <cc:Work
         rdf:about="">
        <dc:format>image/svg+xml</dc:format>
        <dc:type
           rdf:resource="http://purl.org/dc/dcmitype/StillImage" />
        <dc:title></dc:title>
      </cc:Work>
    </rdf:RDF>
  </metadata>
  <g
     transform="translate(-266.28571,-510.07648)"
     id="layer1">
    <g
       transform="matrix(1.0284511,0,0,0.97233594,-897.71429,146.71429)"
       id="text7735"
       style="font-size:15.53294849px;font-style:normal;font-variant:normal;font-weight:bold;font-stretch:normal;text-align:center;line-height:100%;letter-spacing:0px;word-spacing:0px;writing-mode:lr-tb;text-anchor:middle;fill:#282828;fill-opacity:1;stroke:none;display:inline;font-family:Times New Roman;-inkscape-font-specification:'Times New Roman, Bold'">
      <path
         d="m 1141.2994,381.61691 c 0.9759,0.22754 1.661,0.50311 2.0554,0.82671 0.5663,0.46012 0.8495,1.05677 0.8495,1.78993 0,0.77361 -0.311,1.41323 -0.9329,1.91886 -0.7635,0.61181 -1.8734,0.91772 -3.3296,0.91772 l -5.2257,0 0,-0.28063 c 0.4753,1e-5 0.7964,-0.043 0.9633,-0.12893 0.1719,-0.091 0.2907,-0.20731 0.3564,-0.34889 0.071,-0.14157 0.1062,-0.49046 0.1062,-1.04665 l 0,-6.67431 c 0,-0.55619 -0.035,-0.90507 -0.1062,-1.04666 -0.066,-0.14662 -0.1845,-0.26291 -0.3564,-0.34888 -0.172,-0.0859 -0.493,-0.12893 -0.9633,-0.12894 l 0,-0.28062 4.9299,0 c 1.1781,1e-5 2.0124,0.10619 2.5029,0.31855 0.4904,0.20731 0.8772,0.5208 1.1604,0.94047 0.2832,0.41462 0.4247,0.85705 0.4247,1.32728 0,0.49552 -0.1795,0.93795 -0.5385,1.32727 -0.359,0.38429 -0.991,0.69019 -1.8961,0.91772 m -2.7607,-0.20478 c 0.718,1e-5 1.2464,-0.0809 1.5851,-0.2427 0.3439,-0.1618 0.6068,-0.38933 0.7888,-0.6826 0.182,-0.29326 0.2731,-0.66743 0.2731,-1.1225 0,-0.45506 -0.091,-0.8267 -0.2731,-1.11491 -0.177,-0.29326 -0.4323,-0.51574 -0.766,-0.66743 -0.3337,-0.15168 -0.8697,-0.225 -1.6079,-0.21995 l 0,4.05009 m 0,0.59159 0,3.29923 -0.01,0.37923 c 0,0.27304 0.068,0.48034 0.2048,0.62192 0.1416,0.13652 0.3489,0.20478 0.6219,0.20478 0.4045,0 0.7761,-0.0885 1.1149,-0.26546 0.3438,-0.18202 0.6068,-0.44242 0.7888,-0.78119 0.182,-0.34383 0.273,-0.72558 0.273,-1.14526 0,-0.48034 -0.1112,-0.91013 -0.3337,-1.28935 -0.2225,-0.38428 -0.5284,-0.65226 -0.9177,-0.80395 -0.3893,-0.15169 -0.9708,-0.225 -1.7444,-0.21995"
         id="path7803" />
    </g>
  </g>
</svg>
