<?xml version="1.0" encoding="UTF-8" standalone="no"?>
<!-- Created with Inkscape (http://www.inkscape.org/) -->

<svg
   xmlns:dc="http://purl.org/dc/elements/1.1/"
   xmlns:cc="http://creativecommons.org/ns#"
   xmlns:rdf="http://www.w3.org/1999/02/22-rdf-syntax-ns#"
   xmlns:svg="http://www.w3.org/2000/svg"
   xmlns="http://www.w3.org/2000/svg"
   xmlns:xlink="http://www.w3.org/1999/xlink"
   version="1.1"
   width="16"
   height="16"
   id="svg5543">
  <defs
     id="defs5545">
    <linearGradient
       x1="1162"
       y1="197.36218"
       x2="1177"
       y2="203.36218"
       id="linearGradient7900"
       xlink:href="#linearGradient5715"
       gradientUnits="userSpaceOnUse"
       gradientTransform="translate(-946.28571,268.14286)" />
    <linearGradient
       id="linearGradient5715">
      <stop
         id="stop5717"
         style="stop-color:#878787;stop-opacity:1"
         offset="0" />
      <stop
         id="stop5719"
         style="stop-color:#ebebeb;stop-opacity:1"
         offset="1" />
    </linearGradient>
  </defs>
  <metadata
     id="metadata5548">
    <rdf:RDF>
      <cc:Work
         rdf:about="">
        <dc:format>image/svg+xml</dc:format>
        <dc:type
           rdf:resource="http://purl.org/dc/dcmitype/StillImage" />
        <dc:title></dc:title>
      </cc:Work>
    </rdf:RDF>
  </metadata>
  <g
     transform="translate(-217.71428,-461.50504)"
     id="layer1">
    <rect
       width="16"
       height="8"
       x="217.71428"
       y="465.50504"
       id="rect7892"
       style="fill:url(#linearGradient7900);fill-opacity:1;stroke:none;display:inline" />
    <rect
       width="14"
       height="6"
       x="218.71428"
       y="466.50504"
       id="rect7902"
       style="fill:#ffffff;fill-opacity:1;stroke:none;display:inline" />
    <rect
       width="1"
       height="4"
       x="219.71428"
       y="467.50504"
       id="rect7906"
       style="fill:#b3b3b3;fill-opacity:1;stroke:none;display:inline" />
  </g>
</svg>
