<?xml version="1.0" encoding="UTF-8" standalone="no"?>
<!-- Created with Inkscape (http://www.inkscape.org/) -->

<svg
   xmlns:dc="http://purl.org/dc/elements/1.1/"
   xmlns:cc="http://creativecommons.org/ns#"
   xmlns:rdf="http://www.w3.org/1999/02/22-rdf-syntax-ns#"
   xmlns:svg="http://www.w3.org/2000/svg"
   xmlns="http://www.w3.org/2000/svg"
   xmlns:xlink="http://www.w3.org/1999/xlink"
   version="1.1"
   width="16"
   height="16.000019"
   id="svg5610">
  <defs
     id="defs5612">
    <linearGradient
       x1="-373"
       y1="-75.637817"
       x2="-363"
       y2="-65.637817"
       id="linearGradient5555"
       xlink:href="#linearGradient3896"
       gradientUnits="userSpaceOnUse" />
    <linearGradient
       id="linearGradient3896">
      <stop
         id="stop3898"
         style="stop-color:#7bc57b;stop-opacity:1"
         offset="0" />
      <stop
         id="stop3900"
         style="stop-color:#307030;stop-opacity:1"
         offset="1" />
    </linearGradient>
    <linearGradient
       x1="1164"
       y1="1183.3622"
       x2="1159"
       y2="1181.3622"
       id="linearGradient5541"
       xlink:href="#linearGradient9146"
       gradientUnits="userSpaceOnUse"
       gradientTransform="translate(-695.28571,-546.42859)" />
    <linearGradient
       id="linearGradient9146">
      <stop
         id="stop9148"
         style="stop-color:#703b0b;stop-opacity:1"
         offset="0" />
      <stop
         id="stop9150"
         style="stop-color:#a95912;stop-opacity:1"
         offset="1" />
    </linearGradient>
    <linearGradient
       x1="1158"
       y1="1183.375"
       x2="1164"
       y2="1183.375"
       id="linearGradient5539"
       xlink:href="#linearGradient9126"
       gradientUnits="userSpaceOnUse"
       gradientTransform="translate(-695.28571,-546.42859)" />
    <linearGradient
       id="linearGradient9126">
      <stop
         id="stop9128"
         style="stop-color:#ffffff;stop-opacity:1"
         offset="0" />
      <stop
         id="stop9134"
         style="stop-color:#d4c2ab;stop-opacity:0.74509805"
         offset="0.25" />
      <stop
         id="stop9130"
         style="stop-color:#7b4600;stop-opacity:0.41666666"
         offset="0.5" />
      <stop
         id="stop9136"
         style="stop-color:#d2c0a8;stop-opacity:0.74509805"
         offset="0.75" />
      <stop
         id="stop9132"
         style="stop-color:#ffffff;stop-opacity:1"
         offset="1" />
    </linearGradient>
    <linearGradient
       x1="1177"
       y1="1189.3622"
       x2="1168"
       y2="1180.3622"
       id="linearGradient5537"
       xlink:href="#linearGradient4237"
       gradientUnits="userSpaceOnUse" />
    <linearGradient
       id="linearGradient4237">
      <stop
         id="stop4239"
         style="stop-color:#e0956c;stop-opacity:1"
         offset="0" />
      <stop
         id="stop4241"
         style="stop-color:#f4d7c8;stop-opacity:1"
         offset="1" />
    </linearGradient>
    <radialGradient
       cx="1172.1631"
       cy="1191.9314"
       r="5"
       fx="1172.1631"
       fy="1191.9314"
       id="radialGradient5533"
       xlink:href="#linearGradient9172"
       gradientUnits="userSpaceOnUse"
       gradientTransform="matrix(1.2000104,5.7814546e-7,-5.8813859e-7,1.2000078,-940.89301,-785.39409)" />
    <linearGradient
       id="linearGradient9172">
      <stop
         id="stop9174"
         style="stop-color:#128df6;stop-opacity:1"
         offset="0" />
      <stop
         id="stop9180"
         style="stop-color:#5bc1ff;stop-opacity:1"
         offset="0.5000034" />
      <stop
         id="stop9176"
         style="stop-color:#ffffff;stop-opacity:1"
         offset="1" />
    </linearGradient>
    <linearGradient
       x1="1166"
       y1="1186.3622"
       x2="1177"
       y2="1193.3622"
       id="linearGradient5531"
       xlink:href="#linearGradient9164"
       gradientUnits="userSpaceOnUse"
       gradientTransform="translate(-706.28571,-546.42859)" />
    <linearGradient
       id="linearGradient9164">
      <stop
         id="stop9166"
         style="stop-color:#0545dd;stop-opacity:1"
         offset="0" />
      <stop
         id="stop9168"
         style="stop-color:#0a2e9c;stop-opacity:1"
         offset="1" />
    </linearGradient>
  </defs>
  <metadata
     id="metadata5615">
    <rdf:RDF>
      <cc:Work
         rdf:about="">
        <dc:format>image/svg+xml</dc:format>
        <dc:type
           rdf:resource="http://purl.org/dc/dcmitype/StillImage" />
        <dc:title></dc:title>
      </cc:Work>
    </rdf:RDF>
  </metadata>
  <g
     transform="translate(-457.71429,-632.93359)"
     id="layer1">
    <path
       d="m 462.71429,639.93363 -3,3 0,3 2,2 8,0 2,-2 0,-3 -3,-3 z"
       id="path5511"
       style="fill:url(#linearGradient5531);fill-opacity:1;stroke:none;display:inline" />
    <path
       d="m 464.18309,639.93363 -3.4688,3.4062 0,2.1563 1.625,1.4375 6.875,0 1.5,-1.4688 0,-2.1562 -3.4688,-3.375 z"
       id="path5513"
       style="fill:url(#radialGradient5533);fill-opacity:1;stroke:none;display:inline" />
    <path
       d="m 1176,1184.3622 a 4,4 0 1 1 -8,0 4,4 0 1 1 8,0 z"
       transform="translate(-706.28571,-546.42859)"
       id="path5515"
       style="fill:url(#linearGradient5537);fill-opacity:1;stroke:none;display:inline" />
    <path
       d="m 1176,1184.3622 a 4,4 0 1 1 -8,0 4,4 0 1 1 8,0 z"
       transform="matrix(0.75,0,0,0.75,-413.28571,-250.33802)"
       id="path5517"
       style="fill:#fbd4ab;fill-opacity:1;stroke:none;display:inline" />
    <path
       d="m 465.71429,634.94643 c -1.6569,0 -3,1.3431 -3,3 1,0.9872 5,0.9872 6,0 0,-1.6569 -1.3431,-3 -3,-3 z"
       id="path5519"
       style="opacity:0.63519311;fill:url(#linearGradient5539);fill-opacity:1;stroke:none;display:inline" />
    <path
       d="m 465.71429,633.94643 c -1.7161,0 -3.1821,1.0759 -3.75,2.5938 1.2632,-0.1389 2.2133,-0.3749 3.75,0.3934 1.6056,0.8028 2.5862,1.3156 3.9375,0.5753 -0.2197,-2.0015 -1.8775,-3.5625 -3.9375,-3.5625 z"
       id="path5521"
       style="fill:url(#linearGradient5541);fill-opacity:1;stroke:none;display:inline" />
    <path
       d="m 459.71429,642.93363 1,2 0,2 -1,0 c -0.554,0 -1,-0.446 -1,-1 l 0,-1 c 0,-0.554 1,-2 1,-2 z"
       id="path5523"
       style="fill:#cd7b23;fill-opacity:1;stroke:none;display:inline" />
    <path
       d="m 471.71429,642.93363 -1,2 0,2 1,0 c 0.554,0 1,-0.446 1,-1 l 0,-1 c 0,-0.554 -1,-2 -1,-2 z"
       id="path5525"
       style="fill:#cd7b23;fill-opacity:1;stroke:none;display:inline" />
    <path
       d="m 459.71429,642.93363 0,2.419 c 0,0.3216 0.2722,0.5938 0.5938,0.5938 l 0.4062,0 0,-2.0128 z"
       id="path5527"
       style="opacity:0.4;fill:#ffffff;fill-opacity:1;stroke:none;display:inline" />
    <path
       d="m 471.71429,642.93363 0,2.419 c 0,0.3216 -0.2722,0.5938 -0.5938,0.5938 l -0.4062,0 0,-2.0128 z"
       id="path5529"
       style="opacity:0.4;fill:#ffffff;fill-opacity:1;stroke:none;display:inline" />
    <g
       transform="translate(839.71429,643.57143)"
       id="g5543"
       style="display:inline">
      <path
         d="m -361,-70.637817 a 7,7 0 1 1 -14,0 7,7 0 1 1 14,0 z"
         transform="matrix(0.5,0,0,0.5,-185.5,37.181091)"
         id="path5549"
         style="fill:url(#linearGradient5555);fill-opacity:1;fill-rule:nonzero;stroke:none" />
      <path
         d="m -361,-70.637817 a 7,7 0 1 1 -14,0 7,7 0 1 1 14,0 z"
         transform="matrix(0.3571429,0,0,0.3571429,-238.07141,27.089977)"
         id="path5551"
         style="fill:#d1ee97;fill-opacity:0.66494847;fill-rule:nonzero;stroke:none" />
      <path
         d="m -370,0.375 0,1 -1,0 0,1 1,0 0,1 1,0 0,-1 1,0 0,-1 -1,0 0,-1 -1,0 z"
         id="path5553"
         style="fill:#ffffff;fill-opacity:1;fill-rule:nonzero;stroke:none" />
    </g>
  </g>
</svg>
